id,name,model_id:id,group_id:id,perm_read,perm_write,perm_create,perm_unlink
hotel_custom_payment_hotel_user,hotel_custom_payment_access_right,hotel.model_hotel_paymen_customs,hotel.group_hotel_user,1,1,1,0
hotel_custom_payment_hotel_manager,hotel_custom_payment_access_right1,hotel.model_hotel_paymen_customs,hotel.group_hotel_manager,1,1,1,1
register_wizard_hotel_user, hotel_register_wizard_access_right,hotel.model_register_wizard_for_customs_hotel,hotel.group_hotel_user,1,1,1,0
register_wizard_hotel_manager, hotel_register_wizard_access_right1,hotel.model_register_wizard_for_customs_hotel,hotel.group_hotel_manager,1,1,1,1
hotel_restaurant_tables_userx,hotel_restaurant_tables_user_access_right,hotel_restaurant.model_hotel_restaurant_tables,hotel.group_hotel_user,1,1,0,0
hotel_restaurant_tables_managerx, hotel_restaurant_tables_user_access_right1,hotel_restaurant.model_hotel_restaurant_tables,hotel.group_hotel_manager,1,1,0,0
hotel_restaurant_reservation_userx,hotel_restaurant_reservation_user_access_right,hotel_restaurant.model_hotel_restaurant_reservation,hotel.group_hotel_user,1,1,0,0
hotel_restaurant_reservation_managerx,hotel_restaurant_reservation_user_access_right1,hotel_restaurant.model_hotel_restaurant_reservation,hotel.group_hotel_manager,1,1,0,0
hotel_restaurant_order_userx,hotel_restaurant_order_access_right,hotel_restaurant.model_hotel_restaurant_order,hotel.group_hotel_user,1,1,0,0
hotel_restaurant_order_managerx, hotel_restaurant_order_access_right1,hotel_restaurant.model_hotel_restaurant_order,hotel.group_hotel_manager,1,1,0,0
hotel_restaurant_order_list_usex,hotel_restaurant_order_list_access_right,hotel_restaurant.model_hotel_restaurant_order_list,hotel.group_hotel_user,1,1,1,0
hotel_restaurant_order_list_managerx,hotel_restaurant_order_list_access_right,hotel_restaurant.model_hotel_restaurant_order_list,hotel.group_hotel_manager,1,1,1,0
hotel_restaurant_kitchen_order_tickets_userx,hotel_restaurant_kitchen_order_tickets_access_right,hotel_restaurant.model_hotel_restaurant_kitchen_order_tickets,hotel.group_hotel_user,1,1,0,0
hotel_restaurant_kitchen_order_tickets_managerx,hotel_restaurant_kitchen_order_tickets_access_right1,hotel_restaurant.model_hotel_restaurant_kitchen_order_tickets,hotel.group_hotel_manager,1,1,0,0
access_product_category_user,product.category.user,product.model_product_category,hotel.group_hotel_user,1,0,0,0
access_hotel_housekeeping_acitivity_type_user,hotel.housekeeping.activity.type.user,hotel_housekeeping.model_hotel_housekeeping_activity_type,hotel.group_hotel_user,1,0,0,0
access_product_product_user,product.product.user,product.model_product_product,hotel.group_hotel_user,1,0,0,0
access_h_activity_user,h.activity.user,hotel_housekeeping.model_hotel_activity,hotel.group_hotel_user,1,0,0,0
access_hotel_housekeeping_user,hotel.housekeeping.user,hotel_housekeeping.model_hotel_housekeeping,hotel.group_hotel_user,1,0,0,0
access_hotel_housekeeping_activities_user,hotel.housekeeping.activities.user,hotel_housekeeping.model_hotel_housekeeping_activities,hotel.group_hotel_user,1,0,0,0
access_product_category_manager,product.category.manager,product.model_product_category,hotel.group_hotel_manager,1,0,0,0
access_hotel_housekeeping_acitivity_type_manager,hotel.housekeeping.activity.type.manager,hotel_housekeeping.model_hotel_housekeeping_activity_type,hotel.group_hotel_manager,1,0,0,0
access_product_product_manager,product.product.manager,product.model_product_product,hotel.group_hotel_manager,1,0,0,0
access_h_activity_manager,h.activity.manager,hotel_housekeeping.model_hotel_activity,hotel.group_hotel_manager,1,0,0,0
access_hotel_housekeeping_manager,hotel.housekeeping.manager,hotel_housekeeping.model_hotel_housekeeping,hotel.group_hotel_manager,1,0,0,0
access_hotel_housekeeping_activities_manager,hotel.housekeeping.activities.manager,hotel_housekeeping.model_hotel_housekeeping_activities,hotel.group_hotel_manager,1,0,0,0






